<svg width="24px" height="22px" viewBox="0 0 24 22" version="1.1" xmlns="http://www.w3.org/2000/svg" xmlns:xlink="http://www.w3.org/1999/xlink">
    <g id="Evaluation-Lead-Form" stroke="none" stroke-width="1" fill="none" fill-rule="evenodd">
        <g id="Residential/Step-3" transform="translate(-572.000000, -1316.000000)" fill="#BCBEC0" fill-rule="nonzero">
            <path d="M592,1335 L588,1335 L588,1331 L592,1331 L592,1335 Z M586,1325 L582,1325 L582,1329 L586,1329 L586,1325 Z M592,1325 L588,1325 L588,1329 L592,1329 L592,1325 Z M580,1331 L576,1331 L576,1335 L580,1335 L580,1331 Z M586,1331 L582,1331 L582,1335 L586,1335 L586,1331 Z M580,1325 L576,1325 L576,1329 L580,1329 L580,1325 Z M596,1318 L596,1338 L572,1338 L572,1318 L575,1318 L575,1318.90909 C575,1319.91182 575.897,1320.72727 577,1320.72727 C578.103,1320.72727 579,1319.91182 579,1318.90909 L579,1318 L589,1318 L589,1318.90909 C589,1319.91182 589.897,1320.72727 591,1320.72727 C592.103,1320.72727 593,1319.91182 593,1318.90909 L593,1318 L596,1318 Z M594,1323 L574,1323 L574,1336 L594,1336 L594,1323 Z M592,1317 C592,1316.448 591.553,1316 591,1316 C590.447,1316 590,1316.448 590,1317 L590,1319 C590,1319.552 590.447,1320 591,1320 C591.553,1320 592,1319.552 592,1319 L592,1317 Z M578,1319 C578,1319.552 577.553,1320 577,1320 C576.447,1320 576,1319.552 576,1319 L576,1317 C576,1316.448 576.447,1316 577,1316 C577.553,1316 578,1316.448 578,1317 L578,1319 Z" id="Shape"></path>
        </g>
    </g>
</svg>